1,mail.protonmail.com/login
2,login.yahoo.com/
3,sso.godaddy.com/
4,login.live.com/
5,accounts.google.com/signin
6,appleid.apple.com/
7,hackerone.com/users/sign_in
8,www.facebook.com/
9,zoom.us/signin
10,www.netflix.com/login
11,twitter.com/login
12,www.twitch.tv/login
13,discord.com/login
